{
  "name": "MonGrosMod",
  "version": "0.14.0",
  "factorio_version": "0.14",
  "title": "Mon Gros Mod",
  "author": "danderson",
  "homepage": "n/a",
  "description": "Dump recipe data to disk",
  "dependencies": []
} 
